{
  "results": [
    {
      "vote_count": 1545,
      "id": 351286,
      "video": false,
      "vote_average": 6.6,
      "title": "Jurassic World: Fallen Kingdom",
      "popularity": 299.795,
      "poster_path": "/c9XxwwhPHdaImA2f1WEfEsbhaFB.jpg",
      "original_language": "en",
      "original_title": "Jurassic World: Fallen Kingdom",
      "genre_ids": [
        28,
        12,
        878
      ],
      "backdrop_path": "/gBmrsugfWpiXRh13Vo3j0WW55qD.jpg",
      "adult": false,
      "overview": "Several years after the demise of Jurassic World, a volcanic eruption threatens the remaining dinosaurs on the island of Isla Nublar. Claire Dearing, the former park manager and founder of the Dinosaur Protection Group, recruits Owen Grady to help prevent the extinction of the dinosaurs once again.",
      "release_date": "2018-06-06"
    },
    {
      "vote_count": 756,
      "id": 260513,
      "video": false,
      "vote_average": 7.7,
      "title": "Incredibles 2",
      "popularity": 197.17,
      "poster_path": "/x1txcDXkcM65gl7w20PwYSxAYah.jpg",
      "original_language": "en",
      "original_title": "Incredibles 2",
      "genre_ids": [
        28,
        12,
        16,
        10751
      ],
      "backdrop_path": "/mabuNsGJgRuCTuGqjFkWe1xdu19.jpg",
      "adult": false,
      "overview": "Elastigirl springs into action to save the day, while Mr. Incredible faces his greatest challenge yet – taking care of the problems of his three children.",
      "release_date": "2018-06-14"
    },
    {
      "vote_count": 159,
      "id": 363088,
      "video": false,
      "vote_average": 7.2,
      "title": "Ant-Man and the Wasp",
      "popularity": 144.981,
      "poster_path": "/rv1AWImgx386ULjcf62VYaW8zSt.jpg",
      "original_language": "en",
      "original_title": "Ant-Man and the Wasp",
      "genre_ids": [
        28,
        12,
        14,
        35,
        878
      ],
      "backdrop_path": "/6P3c80EOm7BodndGBUAJHHsHKrp.jpg",
      "adult": false,
      "overview": "As Scott Lang balances being both a superhero and a father, Hope van Dyne and Dr. Hank Pym present an urgent new mission that finds the Ant-Man fighting alongside the Wasp to uncover secrets from their past.",
      "release_date": "2018-07-04"
    },
    {
      "vote_count": 76,
      "id": 442249,
      "video": false,
      "vote_average": 6.3,
      "title": "The First Purge",
      "popularity": 103.16,
      "poster_path": "/2slvblTroiT1lY9bYLK7Amigo1k.jpg",
      "original_language": "en",
      "original_title": "The First Purge",
      "genre_ids": [
        28,
        27,
        878,
        53
      ],
      "backdrop_path": "/8FhHeKdeFIhf0pk4RkG1HqbhxRX.jpg",
      "adult": false,
      "overview": "To push the crime rate below one percent for the rest of the year, the New Founding Fathers of America test a sociological theory that vents aggression for one night in one isolated community. But when the violence of oppressors meets the rage of the others, the contagion will explode from the trial-city borders and spread across the nation.",
      "release_date": "2018-07-04"
    },
    {
      "vote_count": 1857,
      "id": 447332,
      "video": false,
      "vote_average": 7.2,
      "title": "A Quiet Place",
      "popularity": 100.149,
      "poster_path": "/nAU74GmpUk7t5iklEp3bufwDq4n.jpg",
      "original_language": "en",
      "original_title": "A Quiet Place",
      "genre_ids": [
        18,
        27,
        53,
        878
      ],
      "backdrop_path": "/roYyPiQDQKmIKUEhO912693tSja.jpg",
      "adult": false,
      "overview": "A family is forced to live in silence while hiding from creatures that hunt by sound.",
      "release_date": "2018-04-03"
    },
    {
      "vote_count": 515,
      "id": 460019,
      "video": false,
      "vote_average": 6,
      "title": "Truth or Dare",
      "popularity": 79.806,
      "poster_path": "/kdkNaQYZ7dhM80LsnAGKpH8ca2g.jpg",
      "original_language": "en",
      "original_title": "Truth or Dare",
      "genre_ids": [
        53,
        27
      ],
      "backdrop_path": "/eQ5xu2pQ5Kergubto5PbbUzey28.jpg",
      "adult": false,
      "overview": "A harmless game of \"Truth or Dare\" among friends turns deadly when someone—or something—begins to punish those who tell a lie—or refuse the dare.",
      "release_date": "2018-04-12"
    },
    {
      "vote_count": 2833,
      "id": 383498,
      "video": false,
      "vote_average": 7.6,
      "title": "Deadpool 2",
      "popularity": 74.465,
      "poster_path": "/to0spRl1CMDvyUbOnbb4fTk3VAd.jpg",
      "original_language": "en",
      "original_title": "Deadpool 2",
      "genre_ids": [
        28,
        35,
        878
      ],
      "backdrop_path": "/3P52oz9HPQWxcwHOwxtyrVV1LKi.jpg",
      "adult": false,
      "overview": "Wisecracking mercenary Deadpool battles the evil and powerful Cable and other bad guys to save a boy's life.",
      "release_date": "2018-05-15"
    },
    {
      "vote_count": 4,
      "id": 493006,
      "video": false,
      "vote_average": 4,
      "title": "Detective Conan: Zero the Enforcer",
      "popularity": 51.067,
      "poster_path": "/mMWV5MXn2pkDnnI4vWpy3dRWdNC.jpg",
      "original_language": "ja",
      "original_title": "名探偵コナン ゼロの執行人",
      "genre_ids": [
        16,
        80,
        9648,
        28,
        18
      ],
      "backdrop_path": "/kEqeponciiz6TyuKWtnKSzXzbGa.jpg",
      "adult": false,
      "overview": "There is a sudden explosion at Tokyo Summit's giant Edge of Ocean facility. The shadow of Tōru Amuro, who works for the National Police Agency Security Bureau as Zero, appears at the site. In addition, the \"triple-face\" character is known as Rei Furuya as a detective and Kogorō Mōri's apprentice, and he is also known as Bourbon as a Black Organization member. Kogorō is arrested as a suspect in the case of the explosion. Conan conducts an investigation to prove Kogorō's innocence, but Amuro gets in his way.",
      "release_date": "2018-04-13"
    },
    {
      "vote_count": 146,
      "id": 460668,
      "video": false,
      "vote_average": 6.2,
      "title": "I Feel Pretty",
      "popularity": 44.065,
      "poster_path": "/rmP8b6vxbpK1sPinnUqXHKq0VkT.jpg",
      "original_language": "en",
      "original_title": "I Feel Pretty",
      "genre_ids": [
        35
      ],
      "backdrop_path": "/eMO51xOIJYtlMZLpDUlrnq0mz8k.jpg",
      "adult": false,
      "overview": "A head injury causes a woman to develop an extraordinary amount of confidence and believe she's drop dead gorgeous.",
      "release_date": "2018-04-19"
    },
    {
      "vote_count": 578,
      "id": 399174,
      "video": false,
      "vote_average": 7.9,
      "title": "Isle of Dogs",
      "popularity": 41.635,
      "poster_path": "/rSluCePdXXtNiQeE6Na5yRGamhL.jpg",
      "original_language": "en",
      "original_title": "Isle of Dogs",
      "genre_ids": [
        12,
        35,
        16
      ],
      "backdrop_path": "/jB5zHG1eHh0OC1S61itXNApZlLD.jpg",
      "adult": false,
      "overview": "In the future, an outbreak of canine flu leads the mayor of a Japanese city to banish all dogs to an island that's a garbage dump. The outcasts must soon embark on an epic journey when a 12-year-old boy arrives on the island to find his beloved pet.",
      "release_date": "2018-03-23"
    },
    {
      "vote_count": 99,
      "id": 400535,
      "video": false,
      "vote_average": 6.7,
      "title": "Sicario: Day of the Soldado",
      "popularity": 41.229,
      "poster_path": "/OdD7A0LgLXPjqzmfcEl9sTYVPo.jpg",
      "original_language": "en",
      "original_title": "Sicario: Day of the Soldado",
      "genre_ids": [
        28,
        80,
        18,
        53
      ],
      "backdrop_path": "/uDRb7zVqtqMtXS8bnqYJ17SlhK8.jpg",
      "adult": false,
      "overview": "FBI agent Matt Graver teams up with operative Alejandro Gillick to prevent Mexican drug cartels from smuggling terrorists across the U.S. border.",
      "release_date": "2018-06-27"
    },
    {
      "vote_count": 100,
      "id": 440471,
      "video": false,
      "vote_average": 4.6,
      "title": "Escape Plan 2: Hades",
      "popularity": 40.166,
      "poster_path": "/Aqhl55vpzxNFqVfc2DpedUsR39L.jpg",
      "original_language": "en",
      "original_title": "Escape Plan 2: Hades",
      "genre_ids": [
        80,
        28,
        53
      ],
      "backdrop_path": "/xIAaN3AQqaJiN5RJ0WsmBady8Hq.jpg",
      "adult": false,
      "overview": "Ray Breslin manages an elite team of security specialists trained in the art of breaking people out of the world's most impenetrable prisons. When his most trusted operative, Shu Ren, is kidnapped and disappears inside the most elaborate prison ever built, Ray must track him down with the help of some of his former friends.",
      "release_date": "2018-06-05"
    },
    {
      "vote_count": 1096,
      "id": 449176,
      "video": false,
      "vote_average": 8.3,
      "title": "Love, Simon",
      "popularity": 37.687,
      "poster_path": "/5YUYg5q7QfC4IoNwNUtiwdiYKPr.jpg",
      "original_language": "en",
      "original_title": "Love, Simon",
      "genre_ids": [
        35,
        18,
        10749
      ],
      "backdrop_path": "/rqMEeajyzSF4PpJtdCB816Iz8Vr.jpg",
      "adult": false,
      "overview": "Everyone deserves a great love story. But for seventeen-year old Simon Spier it's a little more complicated: he's yet to tell his family or friends he's gay and he doesn't know the identity of the anonymous classmate he's fallen for online.",
      "release_date": "2018-02-16"
    },
    {
      "vote_count": 490,
      "id": 402900,
      "video": false,
      "vote_average": 6.8,
      "title": "Ocean's 8",
      "popularity": 35.478,
      "poster_path": "/MvYpKlpFukTivnlBhizGbkAe3v.jpg",
      "original_language": "en",
      "original_title": "Ocean's 8",
      "genre_ids": [
        80,
        35,
        28,
        53
      ],
      "backdrop_path": "/zBIfBeStaDdDdhBrSx8InhgFUVa.jpg",
      "adult": false,
      "overview": "Debbie Ocean, a criminal mastermind, gathers a crew of seven other female thieves to pull off the heist of the century at New York's annual Met Gala.",
      "release_date": "2018-06-07"
    },
    {
      "vote_count": 531,
      "id": 395990,
      "video": false,
      "vote_average": 5.6,
      "title": "Death Wish",
      "popularity": 34.103,
      "poster_path": "/7FG13lLQcV9DC2Bhn0hjxc6AFXV.jpg",
      "original_language": "en",
      "original_title": "Death Wish",
      "genre_ids": [
        28,
        80,
        18,
        53
      ],
      "backdrop_path": "/uQqQvmptJLPTcWDrZXn22p7j7s3.jpg",
      "adult": false,
      "overview": "A mild-mannered father is transformed into a killing machine after his family is torn apart by a violent act.",
      "release_date": "2018-03-02"
    },
    {
      "vote_count": 1650,
      "id": 401981,
      "video": false,
      "vote_average": 6.4,
      "title": "Red Sparrow",
      "popularity": 33.176,
      "poster_path": "/vLCogyfQGxVLDC1gqUdNAIkc29L.jpg",
      "original_language": "en",
      "original_title": "Red Sparrow",
      "genre_ids": [
        9648,
        53
      ],
      "backdrop_path": "/sGzuQYSTwJvLBc2PnuSVLHhuFeh.jpg",
      "adult": false,
      "overview": "Prima ballerina, Dominika Egorova faces a bleak and uncertain future after she suffers an injury that ends her career. She soon turns to Sparrow School, a secret intelligence service that trains exceptional young people to use their minds and bodies as weapons. Dominika emerges as the most dangerous Sparrow after completing the sadistic training process. As she comes to terms with her new abilities, she meets a CIA agent who tries to convince her that he is the only person she can trust.",
      "release_date": "2018-02-28"
    },
    {
      "vote_count": 1154,
      "id": 348350,
      "video": false,
      "vote_average": 6.8,
      "title": "Solo: A Star Wars Story",
      "popularity": 32.753,
      "poster_path": "/4oD6VEccFkorEBTEDXtpLAaz0Rl.jpg",
      "original_language": "en",
      "original_title": "Solo: A Star Wars Story",
      "genre_ids": [
        28,
        12,
        878
      ],
      "backdrop_path": "/7LZ0K4FsALrt7OeNIGOVLNuKQRU.jpg",
      "adult": false,
      "overview": "Through a series of daring escapades deep within a dark and dangerous criminal underworld, Han Solo meets his mighty future copilot Chewbacca and encounters the notorious gambler Lando Calrissian.",
      "release_date": "2018-05-23"
    },
    {
      "vote_count": 80,
      "id": 455980,
      "video": false,
      "vote_average": 7,
      "title": "Tag",
      "popularity": 32.033,
      "poster_path": "/eXXpuW2xaq5Aen9N5prFlARVIvr.jpg",
      "original_language": "en",
      "original_title": "Tag",
      "genre_ids": [
        35
      ],
      "backdrop_path": "/yRXzrwLfB5tDTIA3lSU9S3N9RUK.jpg",
      "adult": false,
      "overview": "For one month every year, five highly competitive friends hit the ground running in a no-holds-barred game of tag they’ve been playing since the first grade. This year, the game coincides with the wedding of their only undefeated player, which should finally make him an easy target. But he knows they’re coming...and he’s ready.",
      "release_date": "2018-06-14"
    },
    {
      "vote_count": 449,
      "id": 407451,
      "video": false,
      "vote_average": 5.1,
      "title": "A Wrinkle in Time",
      "popularity": 28.654,
      "poster_path": "/yAcb58vipewa1BfNit2RjE6boXA.jpg",
      "original_language": "en",
      "original_title": "A Wrinkle in Time",
      "genre_ids": [
        12,
        878,
        10751,
        14
      ],
      "backdrop_path": "/zqUaMojohr96itJYCE3W1NauTn7.jpg",
      "adult": false,
      "overview": "After the disappearance of her scientist father, three peculiar beings send Meg, her brother, and her friend to space in order to find him.",
      "release_date": "2018-03-08"
    },
    {
      "vote_count": 295,
      "id": 493922,
      "video": false,
      "vote_average": 7,
      "title": "Hereditary",
      "popularity": 28.484,
      "poster_path": "/4GFPuL14eXi66V96xBWY73Y9PfR.jpg",
      "original_language": "en",
      "original_title": "Hereditary",
      "genre_ids": [
        27,
        18,
        9648,
        53
      ],
      "backdrop_path": "/yVWiOMpzf7gullGvug83r7gMdha.jpg",
      "adult": false,
      "overview": "After their reclusive grandmother passes away, the Graham family begins to unravel cryptic and increasingly terrifying secrets about their ancestry. The more they discover, the more they find themselves trying to outrun the sinister fate they seem to have inherited.",
      "release_date": "2018-06-04"
    }
  ],
  "page": 1,
  "total_results": 941,
  "dates": {
    "maximum": "2018-07-13",
    "minimum": "2018-05-25"
  },
  "total_pages": 48
}