{  
  "results":[  
     {  
        "vote_count":756,
        "id":260513,
        "video":false,
        "vote_average":7.7,
        "title":"Incredibles 2",
        "popularity":197.17,
        "poster_path":"/x1txcDXkcM65gl7w20PwYSxAYah.jpg",
        "original_language":"en",
        "original_title":"Incredibles 2",
        "genre_ids":[  
           28,
           12,
           16,
           10751
        ],
        "backdrop_path":"/mabuNsGJgRuCTuGqjFkWe1xdu19.jpg",
        "adult":false,
        "overview":"Elastigirl springs into action to save the day, while Mr. Incredible faces his greatest challenge yet – taking care of the problems of his three children.",
        "release_date":"2018-06-14"
     },
     {  
        "vote_count":159,
        "id":363088,
        "video":false,
        "vote_average":7.2,
        "title":"Ant-Man and the Wasp",
        "popularity":144.981,
        "poster_path":"/rv1AWImgx386ULjcf62VYaW8zSt.jpg",
        "original_language":"en",
        "original_title":"Ant-Man and the Wasp",
        "genre_ids":[  
           28,
           12,
           14,
           35,
           878
        ],
        "backdrop_path":"/6P3c80EOm7BodndGBUAJHHsHKrp.jpg",
        "adult":false,
        "overview":"As Scott Lang balances being both a superhero and a father, Hope van Dyne and Dr. Hank Pym present an urgent new mission that finds the Ant-Man fighting alongside the Wasp to uncover secrets from their past.",
        "release_date":"2018-07-04"
     },
     {  
        "vote_count":76,
        "id":442249,
        "video":false,
        "vote_average":6.3,
        "title":"The First Purge",
        "popularity":103.16,
        "poster_path":"/2slvblTroiT1lY9bYLK7Amigo1k.jpg",
        "original_language":"en",
        "original_title":"The First Purge",
        "genre_ids":[  
           28,
           27,
           878,
           53
        ],
        "backdrop_path":"/8FhHeKdeFIhf0pk4RkG1HqbhxRX.jpg",
        "adult":false,
        "overview":"To push the crime rate below one percent for the rest of the year, the New Founding Fathers of America test a sociological theory that vents aggression for one night in one isolated community. But when the violence of oppressors meets the rage of the others, the contagion will explode from the trial-city borders and spread across the nation.",
        "release_date":"2018-07-04"
     },
     {  
        "vote_count":5,
        "id":353081,
        "video":false,
        "vote_average":0,
        "title":"Mission: Impossible - Fallout",
        "popularity":51.133,
        "poster_path":"/80PWnSTkygi3QWWmJ3hrAwqvLnO.jpg",
        "original_language":"en",
        "original_title":"Mission: Impossible - Fallout",
        "genre_ids":[  
           12,
           28,
           53
        ],
        "backdrop_path":"/5qxePyMYDisLe8rJiBYX8HKEyv2.jpg",
        "adult":false,
        "overview":"The sixth installment in the \"Mission: Impossible\". When an IMF mission ends badly, the world is faced with dire consequences. As Ethan Hunt takes it upon himself to fulfil his original briefing, the CIA begin to question his loyalty and his motives. The IMF team find themselves in a race against time, hunted by assassins while trying to prevent a global catastrophe.",
        "release_date":"2018-07-25"
     },
     {  
        "vote_count":297,
        "id":437557,
        "video":false,
        "vote_average":6.3,
        "title":"Blockers",
        "popularity":44.244,
        "poster_path":"/uvlUQXg0AlpGzKukO11K7QtW3Yu.jpg",
        "original_language":"en",
        "original_title":"Blockers",
        "genre_ids":[  
           35
        ],
        "backdrop_path":"/bUcHY7CrYWieikW8fFkL3Dxnt4H.jpg",
        "adult":false,
        "overview":"When three parents discover their daughters’ pact to lose their virginity at prom, they launch a covert one-night operation to stop the teens from sealing the deal.",
        "release_date":"2018-03-14"
     },
     {  
        "vote_count":146,
        "id":460668,
        "video":false,
        "vote_average":6.2,
        "title":"I Feel Pretty",
        "popularity":44.065,
        "poster_path":"/rmP8b6vxbpK1sPinnUqXHKq0VkT.jpg",
        "original_language":"en",
        "original_title":"I Feel Pretty",
        "genre_ids":[  
           35
        ],
        "backdrop_path":"/eMO51xOIJYtlMZLpDUlrnq0mz8k.jpg",
        "adult":false,
        "overview":"A head injury causes a woman to develop an extraordinary amount of confidence and believe she's drop dead gorgeous.",
        "release_date":"2018-04-19"
     },
     {  
        "vote_count":99,
        "id":400535,
        "video":false,
        "vote_average":6.7,
        "title":"Sicario: Day of the Soldado",
        "popularity":41.229,
        "poster_path":"/OdD7A0LgLXPjqzmfcEl9sTYVPo.jpg",
        "original_language":"en",
        "original_title":"Sicario: Day of the Soldado",
        "genre_ids":[  
           28,
           80,
           18,
           53
        ],
        "backdrop_path":"/uDRb7zVqtqMtXS8bnqYJ17SlhK8.jpg",
        "adult":false,
        "overview":"FBI agent Matt Graver teams up with operative Alejandro Gillick to prevent Mexican drug cartels from smuggling terrorists across the U.S. border.",
        "release_date":"2018-06-27"
     },
     {  
        "vote_count":100,
        "id":440471,
        "video":false,
        "vote_average":4.6,
        "title":"Escape Plan 2: Hades",
        "popularity":40.166,
        "poster_path":"/Aqhl55vpzxNFqVfc2DpedUsR39L.jpg",
        "original_language":"en",
        "original_title":"Escape Plan 2: Hades",
        "genre_ids":[  
           80,
           28,
           53
        ],
        "backdrop_path":"/xIAaN3AQqaJiN5RJ0WsmBady8Hq.jpg",
        "adult":false,
        "overview":"Ray Breslin manages an elite team of security specialists trained in the art of breaking people out of the world's most impenetrable prisons. When his most trusted operative, Shu Ren, is kidnapped and disappears inside the most elaborate prison ever built, Ray must track him down with the help of some of his former friends.",
        "release_date":"2018-06-05"
     },
     {  
        "vote_count":490,
        "id":402900,
        "video":false,
        "vote_average":6.8,
        "title":"Ocean's 8",
        "popularity":35.478,
        "poster_path":"/MvYpKlpFukTivnlBhizGbkAe3v.jpg",
        "original_language":"en",
        "original_title":"Ocean's 8",
        "genre_ids":[  
           80,
           35,
           28,
           53
        ],
        "backdrop_path":"/zBIfBeStaDdDdhBrSx8InhgFUVa.jpg",
        "adult":false,
        "overview":"Debbie Ocean, a criminal mastermind, gathers a crew of seven other female thieves to pull off the heist of the century at New York's annual Met Gala.",
        "release_date":"2018-06-07"
     },
     {  
        "vote_count":80,
        "id":455980,
        "video":false,
        "vote_average":7,
        "title":"Tag",
        "popularity":32.033,
        "poster_path":"/eXXpuW2xaq5Aen9N5prFlARVIvr.jpg",
        "original_language":"en",
        "original_title":"Tag",
        "genre_ids":[  
           35
        ],
        "backdrop_path":"/yRXzrwLfB5tDTIA3lSU9S3N9RUK.jpg",
        "adult":false,
        "overview":"For one month every year, five highly competitive friends hit the ground running in a no-holds-barred game of tag they’ve been playing since the first grade. This year, the game coincides with the wedding of their only undefeated player, which should finally make him an easy target. But he knows they’re coming...and he’s ready.",
        "release_date":"2018-06-14"
     },
     {  
        "vote_count":295,
        "id":493922,
        "video":false,
        "vote_average":7,
        "title":"Hereditary",
        "popularity":28.484,
        "poster_path":"/4GFPuL14eXi66V96xBWY73Y9PfR.jpg",
        "original_language":"en",
        "original_title":"Hereditary",
        "genre_ids":[  
           27,
           18,
           9648,
           53
        ],
        "backdrop_path":"/yVWiOMpzf7gullGvug83r7gMdha.jpg",
        "adult":false,
        "overview":"After their reclusive grandmother passes away, the Graham family begins to unravel cryptic and increasingly terrifying secrets about their ancestry. The more they discover, the more they find themselves trying to outrun the sinister fate they seem to have inherited.",
        "release_date":"2018-06-04"
     },
     {  
        "vote_count":5,
        "id":400155,
        "video":false,
        "vote_average":6,
        "title":"Hotel Transylvania 3: Summer Vacation",
        "popularity":26.006,
        "poster_path":"/nbjqedtHhR6HFlAHFMTFGcnoTzq.jpg",
        "original_language":"en",
        "original_title":"Hotel Transylvania 3: Summer Vacation",
        "genre_ids":[  
           10751,
           14,
           35,
           16
        ],
        "backdrop_path":"/m03jul0YdVEOFXEQVUv6pOVQYGL.jpg",
        "adult":false,
        "overview":"Dracula, Mavis, Johnny and the rest of the Drac Pack take a vacation on a luxury Monster Cruise Ship, where Dracula falls in love with the ship's captain, Ericka, who's secretly a descendant of Abraham Van Helsing, the notorious monster slayer.",
        "release_date":"2018-07-12"
     },
     {  
        "vote_count":4,
        "id":476292,
        "video":false,
        "vote_average":6.5,
        "title":"Maquia: When the Promised Flower Blooms",
        "popularity":21.041,
        "poster_path":"/vOrK1n6VgVCFBwgcq5tMoPCqa47.jpg",
        "original_language":"ja",
        "original_title":"さよならの朝に約束の花をかざろう",
        "genre_ids":[  
           16
        ],
        "backdrop_path":"/cfbjFQ14hSTgXChBEvaEjFiUaKb.jpg",
        "adult":false,
        "overview":"A story of encounters and partings interwoven between people; this is a human drama with feelings that touch one's heart gradually, which everyone has experienced at least once.",
        "release_date":"2018-02-24"
     },
     {  
        "vote_count":149,
        "id":425336,
        "video":false,
        "vote_average":6.2,
        "title":"Loving Pablo",
        "popularity":18.243,
        "poster_path":"/u4zDvt1RLzcubG2TGianeJHwwPA.jpg",
        "original_language":"es",
        "original_title":"Loving Pablo",
        "genre_ids":[  
           80,
           18
        ],
        "backdrop_path":"/pcIXV6Od8KeDsLWKu7Wzthaur4V.jpg",
        "adult":false,
        "overview":"The film chronicles the rise and fall of the world's most feared drug lord Pablo Escobar and his volatile love affair with Colombia's most famous journalist Virginia Vallejo throughout a reign of terror that tore a country apart.",
        "release_date":"2017-10-12"
     },
     {  
        "vote_count":54,
        "id":430231,
        "video":false,
        "vote_average":6.9,
        "title":"The Endless",
        "popularity":16.82,
        "poster_path":"/uVHPBTLb6Sj1Eso9HzyBAOMRheM.jpg",
        "original_language":"en",
        "original_title":"The Endless",
        "genre_ids":[  
           878,
           27,
           53
        ],
        "backdrop_path":"/zX0pEwk0zDnS85Nxl1hI6h6dfFu.jpg",
        "adult":false,
        "overview":"Two brothers return to the cult they fled from years ago to discover that the group's beliefs may be more sane than they once thought.",
        "release_date":"2017-11-10"
     },
     {  
        "vote_count":21,
        "id":474335,
        "video":false,
        "vote_average":6.8,
        "title":"Uncle Drew",
        "popularity":16.665,
        "poster_path":"/9lCNsfc1OEDNceGJTjfE0kBknEW.jpg",
        "original_language":"en",
        "original_title":"Uncle Drew",
        "genre_ids":[  
           35
        ],
        "backdrop_path":"/604nkQ0s7ND7nrQorF0v9rSDpdf.jpg",
        "adult":false,
        "overview":"Uncle Drew recruits a squad of older basketball players to return to the court to compete in a tournament.",
        "release_date":"2018-06-27"
     },
     {  
        "vote_count":143,
        "id":470114,
        "video":false,
        "vote_average":5.6,
        "title":"24 Hours to Live",
        "popularity":14.553,
        "poster_path":"/w0MXP33x1bq48TDC7IaNqQ8nxcc.jpg",
        "original_language":"en",
        "original_title":"24 Hours to Live",
        "genre_ids":[  
           28,
           878,
           53,
           9648
        ],
        "backdrop_path":"/jGjFwizX2YYoUOJkCymlfvS8aGp.jpg",
        "adult":false,
        "overview":"An assassin seeks redemption after being given a second chance at life.",
        "release_date":"2017-10-26"
     },
     {  
        "vote_count":0,
        "id":345887,
        "video":false,
        "vote_average":0,
        "title":"The Equalizer 2",
        "popularity":13.064,
        "poster_path":"/cQvc9N6JiMVKqol3wcYrGshsIdZ.jpg",
        "original_language":"en",
        "original_title":"The Equalizer 2",
        "genre_ids":[  
           53,
           28,
           80
        ],
        "backdrop_path":"/z6KLDE72SxE1A8JcJTmmnWArOvR.jpg",
        "adult":false,
        "overview":"Robert McCall returns to deliver his special brand of vigilante justice -- but how far will he go when it's someone he loves?",
        "release_date":"2018-07-19"
     },
     {  
        "vote_count":29,
        "id":453278,
        "video":false,
        "vote_average":7.6,
        "title":"The Rider",
        "popularity":11.362,
        "poster_path":"/gpaT0nA7pLPAmXYGra6sUS95hFB.jpg",
        "original_language":"en",
        "original_title":"The Rider",
        "genre_ids":[  
           18,
           37
        ],
        "backdrop_path":"/rhUXXPcVAG4hBNS7aNVCEZrx0Yy.jpg",
        "adult":false,
        "overview":"Once a rising star of the rodeo circuit, and a gifted horse trainer, young cowboy Brady is warned that his riding days are over, after a horse crushed his skull at a rodeo. Back home on the Pine Ridge Reservation, with little desire or alternatives for a different way of life, Brady’s sense of inadequacy mounts as he is unable to ride or rodeo – the essentials of being a cowboy. In an attempt to regain control of his own fate, Brady undertakes a search for new identity and what it means to be a man in the heartland of America.",
        "release_date":"2017-08-16"
     },
     {  
        "vote_count":0,
        "id":505058,
        "video":false,
        "vote_average":0,
        "title":"Unfriended: Dark Web",
        "popularity":10.038,
        "poster_path":"/q27yNUaEt6ohcQMEVHwvPaoKBT8.jpg",
        "original_language":"en",
        "original_title":"Unfriended: Dark Web",
        "genre_ids":[  
           27
        ],
        "backdrop_path":"/sbrD19ep0meB5uxJHmmpXyeyLsC.jpg",
        "adult":false,
        "overview":"​When a 20-something finds a cache of hidden files on his new laptop, he and his friends are unwittingly thrust into the depths of the dark web.  They soon discover someone has been watching their every move and will go to unimaginable lengths to protect the dark web.",
        "release_date":"2018-07-20"
     }
  ],
  "page":1,
  "total_results":149,
  "dates":{  
     "maximum":"2018-08-01",
     "minimum":"2018-07-14"
  },
  "total_pages":8
}